{
  "data": [
    {
      "id": "5900",
      "created": "27.08.25, 13:40",
      "task": "Call prospect",
      "assignee": "Steve Jones",
      "lead": "Chris Stapleton",
      "phone": "07499382749",
      "agent": "Agent & Co"
    },
    {
      "id": "5900",
      "created": "27.08.25, 13:40",
      "task": "Call prospect",
      "assignee": "Steve Jones",
      "lead": "Chris Stapleton",
      "phone": "07499382749",
      "agent": "Agent & Co"
    },
    {
      "id": "5900",
      "created": "27.08.25, 13:40",
      "task": "Call prospect",
      "assignee": "Steve Jones",
      "lead": "Chris Stapleton",
      "phone": "07499382749",
      "agent": "Agent & Co"
    },
    {
      "id": "5900",
      "created": "27.08.25, 13:40",
      "task": "Call prospect",
      "assignee": "Steve Jones",
      "lead": "Chris Stapleton",
      "phone": "07499382749",
      "agent": "Agent & Co"
    },
    {
      "id": "5900",
      "created": "27.08.25, 13:40",
      "task": "Call prospect",
      "assignee": "Steve Jones",
      "lead": "Chris Stapleton",
      "phone": "07499382749",
      "agent": "Agent & Co"
    },
    {
      "id": "5900",
      "created": "27.08.25, 13:40",
      "task": "Call prospect",
      "assignee": "Steve Jones",
      "lead": "Chris Stapleton",
      "phone": "07499382749",
      "agent": "Agent & Co"
    },
    {
      "id": "5900",
      "created": "27.08.25, 13:40",
      "task": "Call prospect",
      "assignee": "Steve Jones",
      "lead": "Chris Stapleton",
      "phone": "07499382749",
      "agent": "Agent & Co"
    },
    {
      "id": "5900",
      "created": "27.08.25, 13:40",
      "task": "Call prospect",
      "assignee": "Steve Jones",
      "lead": "Chris Stapleton",
      "phone": "07499382749",
      "agent": "Agent & Co"
    },
    {
      "id": "5900",
      "created": "27.08.25, 13:40",
      "task": "Call prospect",
      "assignee": "Steve Jones",
      "lead": "Chris Stapleton",
      "phone": "07499382749",
      "agent": "Agent & Co"
    },
    {
      "id": "5900",
      "created": "27.08.25, 13:40",
      "task": "Call prospect",
      "assignee": "Steve Jones",
      "lead": "Chris Stapleton",
      "phone": "07499382749",
      "agent": "Agent & Co"
    }
  ],
  "meta": {
    "current_page": 1,
    "from": 1,
    "last_page": 2,
    "path": "http://my.localhost/api/ic/client-transactions",
    "per_page": 11,
    "to": 10,
    "total": 18
  }
}